^D:\PROJECTS\C_HW_2\X64\RELEASE\C_HW_2.OBJ|D:\PROJECTS\C_HW_2\X64\RELEASE\HELPERS.OBJ
/OUT:"D:\PROJECTS\C_HW_2\X64\RELEASE\C_HW_2.EXE" /INCREMENTAL:NO /NOLOGO KERNEL32.LIB USER32.LIB GDI32.LIB WINSPOOL.LIB COMDLG32.LIB ADVAPI32.LIB SHELL32.LIB OLE32.LIB OLEAUT32.LIB UUID.LIB ODBC32.LIB ODBCCP32.LIB /MANIFEST /MANIFESTUAC:"level='asInvoker' uiAccess='false'" /manifest:embed /DEBUG /PDB:"D:\PROJECTS\C_HW_2\X64\RELEASE\C_HW_2.PDB" /SUBSYSTEM:CONSOLE /OPT:REF /OPT:ICF /LTCG:incremental /TLBID:1 /DYNAMICBASE /NXCOMPAT /IMPLIB:"D:\PROJECTS\C_HW_2\X64\RELEASE\C_HW_2.LIB" /MACHINE:X64 X64\RELEASE\C_HW_2.OBJ
X64\RELEASE\HELPERS.OBJ
